<?xml version="1.0" encoding="UTF-8" standalone="no"?>
<svg
   xmlns:dc="http://purl.org/dc/elements/1.1/"
   xmlns:cc="http://creativecommons.org/ns#"
   xmlns:rdf="http://www.w3.org/1999/02/22-rdf-syntax-ns#"
   xmlns:svg="http://www.w3.org/2000/svg"
   xmlns="http://www.w3.org/2000/svg"
   xmlns:sodipodi="http://sodipodi.sourceforge.net/DTD/sodipodi-0.dtd"
   xmlns:inkscape="http://www.inkscape.org/namespaces/inkscape"
   inkscape:version="1.0alpha2 (f852c7108f, 2019-08-28)"
   sodipodi:docname="dialog-selectors.svg"
   viewBox="0 0 16 16"
   height="16"
   width="16"
   id="svg1"
   version="1.1">
  <style
     id="style3245"></style>
  <metadata
     id="metadata1679">
    <rdf:RDF>
      <cc:Work
         rdf:about="">
        <dc:format>image/svg+xml</dc:format>
        <dc:type
           rdf:resource="http://purl.org/dc/dcmitype/StillImage" />
        <dc:title />
      </cc:Work>
    </rdf:RDF>
  </metadata>
  <defs
     id="defs1677" />
  <sodipodi:namedview
     inkscape:current-layer="layercompo"
     inkscape:window-maximized="1"
     inkscape:window-height="1376"
     inkscape:window-width="2560"
     inkscape:document-rotation="0"
     inkscape:window-y="27"
     inkscape:window-x="0"
     inkscape:cy="7.1678536"
     inkscape:cx="4.8770631"
     inkscape:zoom="31.678384"
     showgrid="true"
     id="namedview"
     guidetolerance="10"
     gridtolerance="10"
     objecttolerance="10">
    <inkscape:grid
       id="grid"
       type="xygrid" />
  </sodipodi:namedview>
  <g
     inkscape:label="dialogselector"
     id="layercompo"
     inkscape:groupmode="layer">
    <path
       style="opacity:0;fill:none"
       d="M 0,0 H 16 V 16 H 0 Z"
       id="rect22048" />
    <path
       style="opacity:1;fill-rule:evenodd;stroke:none;stroke-width:0.045781;stop-opacity:1"
       inkscape:connector-curvature="0"
       d="M 2.4305525,14.178131 1.1912137,0.2780881 H 14.808787 L 13.568304,14.175887 7.9916682,15.721913 Z m 0,0"
       id="path3339"
       fill="#1572B6" />
    <path
       style="opacity:1;fill-rule:evenodd;stroke:none;stroke-width:0.045781;stop-opacity:1"
       inkscape:connector-curvature="0"
       d="M 8.0000919,14.540213 12.506183,13.29094 13.566335,1.4146485 H 8.0000919 Z m 0,0"
       id="path3341"
       fill="#33A9DC" />
    <g
       style="opacity:1;fill:none;fill-rule:evenodd;stroke:none;stroke-width:1;stop-opacity:1"
       id="Group"
       transform="matrix(0.04578105,0,0,0.04578105,3.705921,2.9942778)">
      <path
         inkscape:connector-curvature="0"
         d="m 93.797,75.496 h 49.275 l 3.403,-38.132 H 93.797 V 0.125 h 0.129 93.246 l -0.893,9.991 -9.152,102.616 h -83.33 z m 0,0"
         id="path3343"
         fill="#FFFFFF" />
      <path
         sodipodi:nodetypes="cccccccccc"
         inkscape:connector-curvature="0"
         d="m 94.02,172.204 -0.163,0.046 -41.472,-11.199 c 0,0 -2.275206,0.042 -2.275206,-15.79682 h -20.151 -17.228 L 17.57,189.82 l 76.278,21.176 0.172,-0.048 z"
         id="path3345"
         fill="#EBEBEB" />
      <path
         inkscape:connector-curvature="0"
         d="m 139.907,111.156 -4.484,49.87 -41.532,11.21 v 38.742 l 76.339,-21.158 0.56,-6.29 6.478,-72.374 z m 0,0"
         id="path3347"
         fill="#FFFFFF" />
      <path
         inkscape:connector-curvature="0"
         d="m 93.926,0.125 v 23.128 14.019 0.092 H 4.098 3.979 L 3.232,28.994 1.535,10.116 0.645,0.125 Z m 0,0"
         id="path3349"
         fill="#EBEBEB" />
      <path
         inkscape:connector-curvature="0"
         d="m 93.797,75.5 v 23.129 14.017 0.092 H 52.969 52.85 L 52.104,104.369 50.406,85.491 49.516,75.5 Z m 0,0"
         id="path3351"
         fill="#EBEBEB" />
    </g>
  </g>
</svg>
